; RUN: llc < %s -relocation-model=pic | FileCheck %s

target datalayout = "e-p:32:32:32-i1:8:8-i8:8:8-i16:16:16-i32:32:32-i64:32:64-f32:32:32-f64:32:64-v64:64:64-v128:128:128-a0:0:64-f80:32:32-n8:16:32"
target triple = "i386-unknown-freebsd9.0"

define double @test1(double %x) nounwind readnone {
; CHECK: test1:
; CHECK: movl foo@GOT
; CHECK-NEXT: jmpl
  %1 = tail call double @foo(double %x) nounwind readnone
  ret double %1
}

declare double @foo(double) readnone

define double @test2(double %x) nounwind readnone {
; CHECK: test2:
; CHECK: movl sin@GOT
; CHECK-NEXT: jmpl
  %1 = tail call double @sin(double %x) nounwind readnone
  ret double %1
}

declare double @sin(double) readnone
